<?xml version="1.0" encoding="UTF-8"?>
<session version="1.0">
<refactoring comment="Move package &apos;leelawattananonkul.arisara.lab5&apos; to &apos;leelawattananonkul.arisara.lab6/src/leelawattananonkul.arisara.lab5&apos;&#x0D;&#x0A;- Original project: &apos;leelawattananonkul.arisara.lab5&apos;&#x0D;&#x0A;- Destination element: &apos;leelawattananonkul.arisara.lab6/src/leelawattananonkul.arisara.lab5&apos;&#x0D;&#x0A;- Original element: &apos;leelawattananonkul.arisara.lab5/src/leelawattananonkul.arisara.lab5&apos;&#x0D;&#x0A;- Update references to refactored element" description="Move package" destination="=leelawattananonkul.arisara.lab6/src&lt;leelawattananonkul.arisara.lab5" element1="/src&lt;leelawattananonkul.arisara.lab5" flags="589830" fragments="1" id="org.eclipse.jdt.ui.move" policy="org.eclipse.jdt.ui.movePackages" stamp="1518442662713" version="1.0"/>
</session>